Library\Bee\artifacts\mvdfrm\UnityEngine.UI.ref.dll_AFC2E85BC2EDBC0B.mvfrm
Library\Bee\artifacts\mvdfrm\UnityEngine.AccessibilityModule.dll_DB396F9BBAF4BA67.mvfrm
Library\Bee\artifacts\mvdfrm\UnityEngine.AIModule.dll_1CE9AF3AC88D6963.mvfrm
Library\Bee\artifacts\mvdfrm\UnityEngine.AndroidJNIModule.dll_F431CB2C8875E0A1.mvfrm
Library\Bee\artifacts\mvdfrm\UnityEngine.AnimationModule.dll_8644ECB1E7A6274D.mvfrm
Library\Bee\artifacts\mvdfrm\UnityEngine.ARModule.dll_D65C743E25AAC82C.mvfrm
Library\Bee\artifacts\mvdfrm\UnityEngine.AssetBundleModule.dll_5E47B13C5758DA1B.mvfrm
Library\Bee\artifacts\mvdfrm\UnityEngine.AudioModule.dll_993909A5A3056CFF.mvfrm
Library\Bee\artifacts\mvdfrm\UnityEngine.ClothModule.dll_002166A07D224BE3.mvfrm
Library\Bee\artifacts\mvdfrm\UnityEngine.CoreModule.dll_54B7DAF23B708E1A.mvfrm
Library\Bee\artifacts\mvdfrm\UnityEngine.CrashReportingModule.dll_7F82A28E698FF5F2.mvfrm
Library\Bee\artifacts\mvdfrm\UnityEngine.DirectorModule.dll_35AC520DBA8492B7.mvfrm
Library\Bee\artifacts\mvdfrm\UnityEngine.dll_6ACB3FA9875B005B.mvfrm
Library\Bee\artifacts\mvdfrm\UnityEngine.DSPGraphModule.dll_3AFDB3772CE563D8.mvfrm
Library\Bee\artifacts\mvdfrm\UnityEngine.GameCenterModule.dll_1E7F15474EB6D192.mvfrm
Library\Bee\artifacts\mvdfrm\UnityEngine.GIModule.dll_B525F848643C517D.mvfrm
Library\Bee\artifacts\mvdfrm\UnityEngine.GridModule.dll_3228F6E053C52411.mvfrm
Library\Bee\artifacts\mvdfrm\UnityEngine.HotReloadModule.dll_078DAAB7C2D942CF.mvfrm
Library\Bee\artifacts\mvdfrm\UnityEngine.ImageConversionModule.dll_6A249A147E3F4C7A.mvfrm
Library\Bee\artifacts\mvdfrm\UnityEngine.IMGUIModule.dll_D198A90C693700E0.mvfrm
Library\Bee\artifacts\mvdfrm\UnityEngine.InputLegacyModule.dll_EF8CCC5AEF4A900C.mvfrm
Library\Bee\artifacts\mvdfrm\UnityEngine.InputModule.dll_FFAED156193D91A3.mvfrm
Library\Bee\artifacts\mvdfrm\UnityEngine.JSONSerializeModule.dll_3B50F8D7BA301AF1.mvfrm
Library\Bee\artifacts\mvdfrm\UnityEngine.LocalizationModule.dll_38FF862DACEE0EE4.mvfrm
Library\Bee\artifacts\mvdfrm\UnityEngine.ParticleSystemModule.dll_D294EBDAD7A18180.mvfrm
Library\Bee\artifacts\mvdfrm\UnityEngine.PerformanceReportingModule.dll_A12BE6275248BCD9.mvfrm
Library\Bee\artifacts\mvdfrm\UnityEngine.Physics2DModule.dll_D2EADCA288A31EE2.mvfrm
Library\Bee\artifacts\mvdfrm\UnityEngine.PhysicsModule.dll_348149681BF33DB0.mvfrm
Library\Bee\artifacts\mvdfrm\UnityEngine.ProfilerModule.dll_67F28B4453DE19C4.mvfrm
Library\Bee\artifacts\mvdfrm\UnityEngine.RuntimeInitializeOnLoadManagerInitializerModule.dll_8809EB1D114153AB.mvfrm
Library\Bee\artifacts\mvdfrm\UnityEngine.ScreenCaptureModule.dll_5538A65CCE9C4753.mvfrm
Library\Bee\artifacts\mvdfrm\UnityEngine.SharedInternalsModule.dll_EE35D8E9F56D47CA.mvfrm
Library\Bee\artifacts\mvdfrm\UnityEngine.SpriteMaskModule.dll_07AB87D77026670C.mvfrm
Library\Bee\artifacts\mvdfrm\UnityEngine.SpriteShapeModule.dll_77A8DE970CFB1225.mvfrm
Library\Bee\artifacts\mvdfrm\UnityEngine.StreamingModule.dll_3AD9DA02372DDE8B.mvfrm
Library\Bee\artifacts\mvdfrm\UnityEngine.SubstanceModule.dll_1784EE4B8280DC99.mvfrm
Library\Bee\artifacts\mvdfrm\UnityEngine.SubsystemsModule.dll_7258EE393E6E4F1F.mvfrm
Library\Bee\artifacts\mvdfrm\UnityEngine.TerrainModule.dll_4EC7C4D6F1B1869E.mvfrm
Library\Bee\artifacts\mvdfrm\UnityEngine.TerrainPhysicsModule.dll_D30F94ADF0E47C0D.mvfrm
Library\Bee\artifacts\mvdfrm\UnityEngine.TextCoreFontEngineModule.dll_2ACFE40BB0FC7A58.mvfrm
Library\Bee\artifacts\mvdfrm\UnityEngine.TextCoreTextEngineModule.dll_72B81A7D40803376.mvfrm
Library\Bee\artifacts\mvdfrm\UnityEngine.TextRenderingModule.dll_7E78186785D3C748.mvfrm
Library\Bee\artifacts\mvdfrm\UnityEngine.TilemapModule.dll_EDC42C58096E67A7.mvfrm
Library\Bee\artifacts\mvdfrm\UnityEngine.TLSModule.dll_B8EDC168EC1EA284.mvfrm
Library\Bee\artifacts\mvdfrm\UnityEngine.UIElementsModule.dll_76974FA1419A8B16.mvfrm
Library\Bee\artifacts\mvdfrm\UnityEngine.UIElementsNativeModule.dll_939E3E648888DBAD.mvfrm
Library\Bee\artifacts\mvdfrm\UnityEngine.UIModule.dll_185D4D6824D46F0F.mvfrm
Library\Bee\artifacts\mvdfrm\UnityEngine.UmbraModule.dll_140DB5BE302C1872.mvfrm
Library\Bee\artifacts\mvdfrm\UnityEngine.UNETModule.dll_E75E22DB887F8393.mvfrm
Library\Bee\artifacts\mvdfrm\UnityEngine.UnityAnalyticsModule.dll_F2345CA483C8D37C.mvfrm
Library\Bee\artifacts\mvdfrm\UnityEngine.UnityConnectModule.dll_6875CAD45E7249D0.mvfrm
Library\Bee\artifacts\mvdfrm\UnityEngine.UnityCurlModule.dll_B9618DE357BA193A.mvfrm
Library\Bee\artifacts\mvdfrm\UnityEngine.UnityTestProtocolModule.dll_FF98BAC11440CAA8.mvfrm
Library\Bee\artifacts\mvdfrm\UnityEngine.UnityWebRequestAssetBundleModule.dll_E8039A9A2D03334D.mvfrm
Library\Bee\artifacts\mvdfrm\UnityEngine.UnityWebRequestAudioModule.dll_19283A05D8B38771.mvfrm
Library\Bee\artifacts\mvdfrm\UnityEngine.UnityWebRequestModule.dll_7BC3A1BE8933E6F9.mvfrm
Library\Bee\artifacts\mvdfrm\UnityEngine.UnityWebRequestTextureModule.dll_D9F04BF9AD7BE566.mvfrm
Library\Bee\artifacts\mvdfrm\UnityEngine.UnityWebRequestWWWModule.dll_3D7A5FD9303FEFE2.mvfrm
Library\Bee\artifacts\mvdfrm\UnityEngine.VehiclesModule.dll_AD6F4B8D34AE6252.mvfrm
Library\Bee\artifacts\mvdfrm\UnityEngine.VFXModule.dll_39CC59D7C28C0BF1.mvfrm
Library\Bee\artifacts\mvdfrm\UnityEngine.VideoModule.dll_BE428E10659788A4.mvfrm
Library\Bee\artifacts\mvdfrm\UnityEngine.VRModule.dll_6B2F73EDC68EF487.mvfrm
Library\Bee\artifacts\mvdfrm\UnityEngine.WindModule.dll_CB06B61ACCA70C83.mvfrm
Library\Bee\artifacts\mvdfrm\UnityEngine.XRModule.dll_9DEE36F24FC941E5.mvfrm