Library\Bee\artifacts\mvdfrm\UnityEditor.TestRunner.ref.dll_A805A84D9B0C22D9.mvfrm
Library\Bee\artifacts\mvdfrm\UnityEditor.UI.ref.dll_0174E068A5FA251B.mvfrm
Library\Bee\artifacts\mvdfrm\UnityEngine.SpatialTracking.ref.dll_CC46AD662704850F.mvfrm
Library\Bee\artifacts\mvdfrm\UnityEngine.TestRunner.ref.dll_7423F2FBC6CF80C4.mvfrm
Library\Bee\artifacts\mvdfrm\UnityEngine.UI.ref.dll_BDDAB6C3AC1C4D86.mvfrm
Library\Bee\artifacts\mvdfrm\UnityEditor.Graphs.dll_E88E3CDBF3B9ECA5.mvfrm
Library\Bee\artifacts\mvdfrm\UnityEditor.CoreModule.dll_9500A76BA1089573.mvfrm
Library\Bee\artifacts\mvdfrm\UnityEditor.DeviceSimulatorModule.dll_12B6974F96B8B7BE.mvfrm
Library\Bee\artifacts\mvdfrm\UnityEditor.DiagnosticsModule.dll_978AEA35F48FCA8C.mvfrm
Library\Bee\artifacts\mvdfrm\UnityEditor.dll_46C255DB4D19F9B2.mvfrm
Library\Bee\artifacts\mvdfrm\UnityEditor.GraphViewModule.dll_1C7FCC99C9D914E3.mvfrm
Library\Bee\artifacts\mvdfrm\UnityEditor.PackageManagerUIModule.dll_09DB197F5C22210F.mvfrm
Library\Bee\artifacts\mvdfrm\UnityEditor.QuickSearchModule.dll_229A6B434D66C6E5.mvfrm
Library\Bee\artifacts\mvdfrm\UnityEditor.SceneTemplateModule.dll_28ACD79201770406.mvfrm
Library\Bee\artifacts\mvdfrm\UnityEditor.TextCoreFontEngineModule.dll_22A2F708982C0991.mvfrm
Library\Bee\artifacts\mvdfrm\UnityEditor.TextCoreTextEngineModule.dll_6A8B2D7A27AFC2AF.mvfrm
Library\Bee\artifacts\mvdfrm\UnityEditor.UIBuilderModule.dll_710879B63C918E17.mvfrm
Library\Bee\artifacts\mvdfrm\UnityEditor.UIElementsModule.dll_656F7DD9DC41BDCF.mvfrm
Library\Bee\artifacts\mvdfrm\UnityEditor.UIElementsSamplesModule.dll_0FD8E253B2DA558E.mvfrm
Library\Bee\artifacts\mvdfrm\UnityEditor.UIServiceModule.dll_A9FA8B1925C8DE31.mvfrm
Library\Bee\artifacts\mvdfrm\UnityEditor.UnityConnectModule.dll_CBB6593BE55CFDA9.mvfrm
Library\Bee\artifacts\mvdfrm\UnityEngine.AccessibilityModule.dll_5B52432901ED2BA3.mvfrm
Library\Bee\artifacts\mvdfrm\UnityEngine.AIModule.dll_9F99AF5436B7B367.mvfrm
Library\Bee\artifacts\mvdfrm\UnityEngine.AndroidJNIModule.dll_E3B866AD25612CA5.mvfrm
Library\Bee\artifacts\mvdfrm\UnityEngine.AnimationModule.dll_EB0548C2A435E989.mvfrm
Library\Bee\artifacts\mvdfrm\UnityEngine.ARModule.dll_590C745793D51230.mvfrm
Library\Bee\artifacts\mvdfrm\UnityEngine.AssetBundleModule.dll_66839E34AFCD7BD7.mvfrm
Library\Bee\artifacts\mvdfrm\UnityEngine.AudioModule.dll_2C8FEC796970403B.mvfrm
Library\Bee\artifacts\mvdfrm\UnityEngine.ClothModule.dll_93784974438D1F1F.mvfrm
Library\Bee\artifacts\mvdfrm\UnityEngine.ClusterInputModule.dll_4B52CE5196E4D06F.mvfrm
Library\Bee\artifacts\mvdfrm\UnityEngine.ClusterRendererModule.dll_186359C10673C542.mvfrm
Library\Bee\artifacts\mvdfrm\UnityEngine.CoreModule.dll_B8217ABE490E009E.mvfrm
Library\Bee\artifacts\mvdfrm\UnityEngine.CrashReportingModule.dll_128CE13D2CC422F6.mvfrm
Library\Bee\artifacts\mvdfrm\UnityEngine.DirectorModule.dll_113E08A27580863B.mvfrm
Library\Bee\artifacts\mvdfrm\UnityEngine.dll_79669CB3AB8D8697.mvfrm
Library\Bee\artifacts\mvdfrm\UnityEngine.DSPGraphModule.dll_168F6A0BE7E1575C.mvfrm
Library\Bee\artifacts\mvdfrm\UnityEngine.GameCenterModule.dll_0E05B0C7EBA21D96.mvfrm
Library\Bee\artifacts\mvdfrm\UnityEngine.GIModule.dll_37D5F861D2669B81.mvfrm
Library\Bee\artifacts\mvdfrm\UnityEngine.GridModule.dll_959296AC61629695.mvfrm
Library\Bee\artifacts\mvdfrm\UnityEngine.HotReloadModule.dll_6C4E06C87F69050B.mvfrm
Library\Bee\artifacts\mvdfrm\UnityEngine.ImageConversionModule.dll_8455577188987D36.mvfrm
Library\Bee\artifacts\mvdfrm\UnityEngine.IMGUIModule.dll_64EF8BE02FA1D41C.mvfrm
Library\Bee\artifacts\mvdfrm\UnityEngine.InputLegacyModule.dll_F7C8B95347BF31C8.mvfrm
Library\Bee\artifacts\mvdfrm\UnityEngine.InputModule.dll_9305B429DFA864DF.mvfrm
Library\Bee\artifacts\mvdfrm\UnityEngine.JSONSerializeModule.dll_BB69CC6501288C2D.mvfrm
Library\Bee\artifacts\mvdfrm\UnityEngine.LocalizationModule.dll_899F98A42E60C368.mvfrm
Library\Bee\artifacts\mvdfrm\UnityEngine.NVIDIAModule.dll_D4B585B0EF5694CA.mvfrm
Library\Bee\artifacts\mvdfrm\UnityEngine.ParticleSystemModule.dll_659F2A899AD5AE84.mvfrm
Library\Bee\artifacts\mvdfrm\UnityEngine.PerformanceReportingModule.dll_938B3E98C031B35D.mvfrm
Library\Bee\artifacts\mvdfrm\UnityEngine.Physics2DModule.dll_37AB38B34532E11E.mvfrm
Library\Bee\artifacts\mvdfrm\UnityEngine.PhysicsModule.dll_423A506BE8BF106C.mvfrm
Library\Bee\artifacts\mvdfrm\UnityEngine.ProfilerModule.dll_438441D90EDA0D48.mvfrm
Library\Bee\artifacts\mvdfrm\UnityEngine.RuntimeInitializeOnLoadManagerInitializerModule.dll_7EB2B0E8173F8DE7.mvfrm
Library\Bee\artifacts\mvdfrm\UnityEngine.ScreenCaptureModule.dll_D55179EA1594B88F.mvfrm
Library\Bee\artifacts\mvdfrm\UnityEngine.SharedInternalsModule.dll_08669646FFC67886.mvfrm
Library\Bee\artifacts\mvdfrm\UnityEngine.SpriteMaskModule.dll_F73223580D11B310.mvfrm
Library\Bee\artifacts\mvdfrm\UnityEngine.SpriteShapeModule.dll_7FE4CB8F656FB3E1.mvfrm
Library\Bee\artifacts\mvdfrm\UnityEngine.StreamingModule.dll_9F9A3612F3BDA0C7.mvfrm
Library\Bee\artifacts\mvdfrm\UnityEngine.SubstanceModule.dll_7C454A5C3F109ED5.mvfrm
Library\Bee\artifacts\mvdfrm\UnityEngine.SubsystemsModule.dll_61DF89B9DB599B23.mvfrm
Library\Bee\artifacts\mvdfrm\UnityEngine.TerrainModule.dll_5C80CBDABE7D595A.mvfrm
Library\Bee\artifacts\mvdfrm\UnityEngine.TerrainPhysicsModule.dll_6619D35CB418A911.mvfrm
Library\Bee\artifacts\mvdfrm\UnityEngine.TextCoreFontEngineModule.dll_A102725BAB29C85C.mvfrm
Library\Bee\artifacts\mvdfrm\UnityEngine.TextCoreTextEngineModule.dll_E8EAA8CD3AAD817A.mvfrm
Library\Bee\artifacts\mvdfrm\UnityEngine.TextRenderingModule.dll_FE90EBF4CCCC3884.mvfrm
Library\Bee\artifacts\mvdfrm\UnityEngine.TilemapModule.dll_FB7D335BD63A3A63.mvfrm
Library\Bee\artifacts\mvdfrm\UnityEngine.TLSModule.dll_F33DD4E9BE8D6640.mvfrm
Library\Bee\artifacts\mvdfrm\UnityEngine.UaaLAnalyticsModule.dll_493C1BC4A6DD23B4.mvfrm
Library\Bee\artifacts\mvdfrm\UnityEngine.UIElementsModule.dll_661DEB21DE85D71A.mvfrm
Library\Bee\artifacts\mvdfrm\UnityEngine.UIElementsNativeModule.dll_5454CE14CD9A9131.mvfrm
Library\Bee\artifacts\mvdfrm\UnityEngine.UIModule.dll_9B0D4D8192FEB913.mvfrm
Library\Bee\artifacts\mvdfrm\UnityEngine.UmbraModule.dll_A7649891F696EBAE.mvfrm
Library\Bee\artifacts\mvdfrm\UnityEngine.UNETModule.dll_4AC7C2A7961CF617.mvfrm
Library\Bee\artifacts\mvdfrm\UnityEngine.UnityAnalyticsModule.dll_853E9B5346FD0080.mvfrm
Library\Bee\artifacts\mvdfrm\UnityEngine.UnityConnectModule.dll_B915DD4ADFE4FE54.mvfrm
Library\Bee\artifacts\mvdfrm\UnityEngine.UnityCurlModule.dll_1E21E9F41449DB76.mvfrm
Library\Bee\artifacts\mvdfrm\UnityEngine.UnityTestProtocolModule.dll_CB9B98460CD5AAE4.mvfrm
Library\Bee\artifacts\mvdfrm\UnityEngine.UnityWebRequestAssetBundleModule.dll_7B36F19FF3738351.mvfrm
Library\Bee\artifacts\mvdfrm\UnityEngine.UnityWebRequestAudioModule.dll_0B879277469C7DF5.mvfrm
Library\Bee\artifacts\mvdfrm\UnityEngine.UnityWebRequestModule.dll_95F45F1B938D17B5.mvfrm
Library\Bee\artifacts\mvdfrm\UnityEngine.UnityWebRequestTextureModule.dll_5950E9A1F962946A.mvfrm
Library\Bee\artifacts\mvdfrm\UnityEngine.UnityWebRequestWWWModule.dll_B3ACEE292A6D3DE6.mvfrm
Library\Bee\artifacts\mvdfrm\UnityEngine.VehiclesModule.dll_89010221EFAA55D6.mvfrm
Library\Bee\artifacts\mvdfrm\UnityEngine.VFXModule.dll_741C6D5894FACFAD.mvfrm
Library\Bee\artifacts\mvdfrm\UnityEngine.VideoModule.dll_519970E42C025BE0.mvfrm
Library\Bee\artifacts\mvdfrm\UnityEngine.VirtualTexturingModule.dll_78E18283A64911BC.mvfrm
Library\Bee\artifacts\mvdfrm\UnityEngine.VRModule.dll_EDDF740734B93E8B.mvfrm
Library\Bee\artifacts\mvdfrm\UnityEngine.WindModule.dll_2E7055E6DA447F07.mvfrm
Library\Bee\artifacts\mvdfrm\UnityEngine.XRModule.dll_209E370BBDF38BE9.mvfrm
Library\Bee\artifacts\mvdfrm\Unity.Android.Gradle.dll_61139713EE4898DB.mvfrm
Library\Bee\artifacts\mvdfrm\Unity.Android.Types.dll_913E76B09FA2DF91.mvfrm
Library\Bee\artifacts\mvdfrm\UnityEditor.Android.Extensions.dll_83C4DC31F50EDBFB.mvfrm
Library\Bee\artifacts\mvdfrm\UnityEditor.WindowsStandalone.Extensions.dll_BA0B99A037458E5D.mvfrm
Library\Bee\artifacts\mvdfrm\Unity.Plastic.Antlr3.Runtime.dll_0AEB044564B96229.mvfrm
Library\Bee\artifacts\mvdfrm\Unity.Plastic.Newtonsoft.Json.dll_589E2A49DB5DAFFC.mvfrm